…
Question 3
There are 691 companies, this dataset has information over the duration of 10 years, and there are 234 industries.

df %>% 
  count(COMPANYNAME)

## # A tibble: 691 × 2
##    COMPANYNAME                      n
##    <chr>                        <int>
##  1 1-800-FLOWERS.COM               10
##  2 3D SYSTEMS CORP                 10
##  3 3M CO                           10
##  4 8X8 INC                         10
##  5 A V HOMES INC                   10
##  6 AAON INC                        10
##  7 ABAXIS INC                      10
##  8 ACACIA DIVERSIFIED HLDGS INC    10
##  9 ACCO BRANDS CORP                10
## 10 ACCURAY INC                     10
## # … with 681 more rows
…
df %>% 
  count(SIC)

## # A tibble: 234 × 2
##    SIC       n
##    <chr> <int>
##  1 100      20
##  2 1382     10
##  3 1389     10
##  4 1531     90
##  5 1623     10
##  6 200      10
##  7 2000     20
##  8 2011     20
##  9 2013     30
## 10 2015     10
## # … with 224 more rows

df %>%
  count(SIC,sort = TRUE)

## # A tibble: 234 × 2
##    SIC       n
##    <chr> <int>
##  1 7370    390
##  2 5812    280
##  3 7372    280
##  4 2834    160
##  5 3845    130
##  6 3674    120
##  7 5500    110
##  8 5651    110
##  9 7990    110
## 10 2300    100
## # … with 224 more rows
…
company_2008 %>% 
  group_by(COMPANYNAME) %>% 
  reframe(ROA) %>% 
  arrange(ROA)

## # A tibble: 4,774,810 × 2
##    COMPANYNAME                    ROA
##    <chr>                        <dbl>
##  1 1-800-FLOWERS.COM             -Inf
##  2 3D SYSTEMS CORP               -Inf
##  3 3M CO                         -Inf
##  4 8X8 INC                       -Inf
##  5 A V HOMES INC                 -Inf
##  6 AAON INC                      -Inf
##  7 ABAXIS INC                    -Inf
##  8 ACACIA DIVERSIFIED HLDGS INC  -Inf
##  9 ACCO BRANDS CORP              -Inf
## 10 ACCURAY INC                   -Inf
## # … with 4,774,800 more rows
…
transportation_dataset %>% 
  group_by(COMPANYNAME) %>% 
  reframe(NPMARGIN) %>% 
  arrange(NPMARGIN)

## # A tibble: 48,370 × 2
##    COMPANYNAME          NPMARGIN
##    <chr>                   <dbl>
##  1 ALASKA AIR GROUP INC     -Inf
##  2 ALASKA AIR GROUP INC     -Inf
##  3 ALASKA AIR GROUP INC     -Inf
##  4 ALASKA AIR GROUP INC     -Inf
##  5 ALASKA AIR GROUP INC     -Inf
##  6 ALASKA AIR GROUP INC     -Inf
##  7 ALASKA AIR GROUP INC     -Inf
##  8 ALASKA AIR GROUP INC     -Inf
##  9 ALASKA AIR GROUP INC     -Inf
## 10 ALASKA AIR GROUP INC     -Inf
## # … with 48,360 more rows
…
Question 10
Delaware has the most amount of companies

df %>%
  count(STATEINCORP,sort = TRUE)

## # A tibble: 32 × 2
##    STATEINCORP     n
##    <chr>       <int>
##  1 DE           4360
##  2 NV            340
##  3 MN            200
##  4 FL            170
##  5 OH            160
##  6 WA            140
##  7 NY            130
##  8 WI            120
##  9 MD            110
## 10 CA            100
## # … with 22 more rows
